{
  "id": "cyncopated_productions_chatagon",
  "name": "Chatagon",
  "icon": "assets/images/logo.svg",
  "window": {
    "type": "movable"
  },
  "viewer": "Chatagon",
  "config": "ChatagonConfig",
  "broadcaster_whitelist": ["126955211", "89319907"],
  "description": "This is a demo of the toast notification window.\nThe broadcaster can configure the placement and type of image to be shown, and then trigger a new message from the live app. All viewers with the Overlay loaded will see the message and image in the correct position for 5 seconds before it disappears."
}
